mc20_13TeV.412002.aMcAtNloPythia8EvtGen_HThalfscale_tW_inclusive.deriv.DAOD_PHYSLITE.e6817_a907_r14859_p6490
mc20_13TeV.412002.aMcAtNloPythia8EvtGen_HThalfscale_tW_inclusive.deriv.DAOD_PHYSLITE.e6817_a907_r14860_p6490
mc20_13TeV.412002.aMcAtNloPythia8EvtGen_HThalfscale_tW_inclusive.deriv.DAOD_PHYSLITE.e6817_a907_r14861_p6490


mc20_13TeV.410654.PowhegPythia8EvtGen_A14_Wt_DS_inclusive_top.deriv.DAOD_PHYSLITE.e6552_s3681_r13144_p6490
mc20_13TeV.410654.PowhegPythia8EvtGen_A14_Wt_DS_inclusive_top.deriv.DAOD_PHYSLITE.e6552_s3681_r13145_p6490
mc20_13TeV.410654.PowhegPythia8EvtGen_A14_Wt_DS_inclusive_top.deriv.DAOD_PHYSLITE.e6552_s3681_r13167_p6490


mc20_13TeV.410655.PowhegPythia8EvtGen_A14_Wt_DS_inclusive_antitop.deriv.DAOD_PHYSLITE.e6552_s3681_r13144_p6490
mc20_13TeV.410655.PowhegPythia8EvtGen_A14_Wt_DS_inclusive_antitop.deriv.DAOD_PHYSLITE.e6552_s3681_r13145_p6490
mc20_13TeV.410655.PowhegPythia8EvtGen_A14_Wt_DS_inclusive_antitop.deriv.DAOD_PHYSLITE.e6552_s3681_r13167_p6490

