#mc20_13TeV.410658.PhPy8EG_A14_tchan_BW50_lept_top.deriv.DAOD_PHYS.e6671_s3681_r13144_p6266
#mc20_13TeV.410658.PhPy8EG_A14_tchan_BW50_lept_top.deriv.DAOD_PHYS.e6671_s3681_r13145_p6266
#mc20_13TeV.410658.PhPy8EG_A14_tchan_BW50_lept_top.deriv.DAOD_PHYS.e6671_s3681_r13167_p6266

#mc20_13TeV.410659.PhPy8EG_A14_tchan_BW50_lept_antitop.deriv.DAOD_PHYS.e6671_s3681_r13144_p6266
#mc20_13TeV.410659.PhPy8EG_A14_tchan_BW50_lept_antitop.deriv.DAOD_PHYS.e6671_s3681_r13145_p6266
#mc20_13TeV.410659.PhPy8EG_A14_tchan_BW50_lept_antitop.deriv.DAOD_PHYS.e6671_s3681_r13167_p6266

#mc20_13TeV.410644.PowhegPythia8EvtGen_A14_singletop_schan_lept_top.deriv.DAOD_PHYS.e6527_s3681_r13144_p6266
#mc20_13TeV.410644.PowhegPythia8EvtGen_A14_singletop_schan_lept_top.deriv.DAOD_PHYS.e6527_s3681_r13145_p6266
#mc20_13TeV.410644.PowhegPythia8EvtGen_A14_singletop_schan_lept_top.deriv.DAOD_PHYS.e6527_s3681_r13167_p6266

#mc20_13TeV.410645.PowhegPythia8EvtGen_A14_singletop_schan_lept_antitop.deriv.DAOD_PHYS.e6527_s3681_r13144_p6266
#mc20_13TeV.410645.PowhegPythia8EvtGen_A14_singletop_schan_lept_antitop.deriv.DAOD_PHYS.e6527_s3681_r13145_p6266
#mc20_13TeV.410645.PowhegPythia8EvtGen_A14_singletop_schan_lept_antitop.deriv.DAOD_PHYS.e6527_s3681_r13167_p6266

#mc20_13TeV.601353.PhPy8EG_tW_dyn_DR_dil_antitop.deriv.DAOD_PHYS.e8547_s4231_r13144_p6266
#mc20_13TeV.601353.PhPy8EG_tW_dyn_DR_dil_antitop.deriv.DAOD_PHYS.e8547_s4231_r13145_p6266
mc20_13TeV.601353.PhPy8EG_tW_dyn_DR_dil_antitop.deriv.DAOD_PHYS.e8547_s4231_r13167_p6266

#mc20_13TeV.601354.PhPy8EG_tW_dyn_DR_dil_top.deriv.DAOD_PHYS.e8547_s4231_r13144_p6266
#mc20_13TeV.601354.PhPy8EG_tW_dyn_DR_dil_top.deriv.DAOD_PHYS.e8547_s4231_r13145_p6266
mc20_13TeV.601354.PhPy8EG_tW_dyn_DR_dil_top.deriv.DAOD_PHYS.e8547_s4231_r13167_p6266

#mc20_13TeV.410560.MadGraphPythia8EvtGen_A14_tZ_4fl_tchan_noAllHad.deriv.DAOD_PHYS.e5803_s3681_r13144_p6266
#mc20_13TeV.410560.MadGraphPythia8EvtGen_A14_tZ_4fl_tchan_noAllHad.deriv.DAOD_PHYS.e5803_s3681_r13145_p6266
#mc20_13TeV.410560.MadGraphPythia8EvtGen_A14_tZ_4fl_tchan_noAllHad.deriv.DAOD_PHYS.e5803_s3681_r13167_p6266

#mc20_13TeV.410155.aMcAtNloPythia8EvtGen_MEN30NLO_A14N23LO_ttW.deriv.DAOD_PHYS.e5070_s3681_r13144_p6266
#mc20_13TeV.410155.aMcAtNloPythia8EvtGen_MEN30NLO_A14N23LO_ttW.deriv.DAOD_PHYS.e5070_s3681_r13145_p6266
#mc20_13TeV.410155.aMcAtNloPythia8EvtGen_MEN30NLO_A14N23LO_ttW.deriv.DAOD_PHYS.e5070_s3681_r13167_p6266

#mc20_13TeV.410218.aMcAtNloPythia8EvtGen_MEN30NLO_A14N23LO_ttee.deriv.DAOD_PHYS.e5070_s3681_r13144_p6266
#mc20_13TeV.410218.aMcAtNloPythia8EvtGen_MEN30NLO_A14N23LO_ttee.deriv.DAOD_PHYS.e5070_s3681_r13145_p6266
#mc20_13TeV.410218.aMcAtNloPythia8EvtGen_MEN30NLO_A14N23LO_ttee.deriv.DAOD_PHYS.e5070_s3681_r13167_p6266

#mc20_13TeV.410219.aMcAtNloPythia8EvtGen_MEN30NLO_A14N23LO_ttmumu.deriv.DAOD_PHYS.e5070_s3681_r13144_p6266
#mc20_13TeV.410219.aMcAtNloPythia8EvtGen_MEN30NLO_A14N23LO_ttmumu.deriv.DAOD_PHYS.e5070_s3681_r13145_p6266
#mc20_13TeV.410219.aMcAtNloPythia8EvtGen_MEN30NLO_A14N23LO_ttmumu.deriv.DAOD_PHYS.e5070_s3681_r13167_p6266

#mc20_13TeV.410220.aMcAtNloPythia8EvtGen_MEN30NLO_A14N23LO_tttautau.deriv.DAOD_PHYS.e5070_s3681_r13144_p6266
#mc20_13TeV.410220.aMcAtNloPythia8EvtGen_MEN30NLO_A14N23LO_tttautau.deriv.DAOD_PHYS.e5070_s3681_r13145_p6266
#mc20_13TeV.410220.aMcAtNloPythia8EvtGen_MEN30NLO_A14N23LO_tttautau.deriv.DAOD_PHYS.e5070_s3681_r13167_p6266

#mc20_13TeV.410081.MadGraphPythia8EvtGen_A14NNPDF23_ttbarWW.deriv.DAOD_PHYS.e4111_s3681_r13144_p6266
#mc20_13TeV.410081.MadGraphPythia8EvtGen_A14NNPDF23_ttbarWW.deriv.DAOD_PHYS.e4111_s3681_r13145_p6266
#mc20_13TeV.410081.MadGraphPythia8EvtGen_A14NNPDF23_ttbarWW.deriv.DAOD_PHYS.e4111_s3681_r13167_p6266
